{
    "ms3_import_metaimport": {
        "column": {
            "metaimport_id": true,
            "sku": true,
            "name": true,
            "price": true,
            "cost": true,
            "margin": true,
            "json_data": true,
            "raise_percent": true,
            "raise_value": true,
            "imported": true,
            "supplier": true
        },
        "constraint": {
            "PRIMARY": true
        }
    }
}